"discharge_year","facility_name","at_risk_admissions","observed_ppr_chains","observed_ppr_rate","expected_ppr_rate","risk_adjusted_ppr_rate"
2013,"ADIRONDACK MEDICAL CENTER",526,33,6.27,6.52,6.05
2012,"ADIRONDACK MEDICAL CENTER",540,30,5.56,6.81,4.87
2011,"ADIRONDACK MEDICAL CENTER",531,20,3.77,7.37,3.46
2013,"ALBANY MEDICAL CENTER",7830,492,6.28,6.41,6.16
2012,"ALBANY MEDICAL CENTER",7159,451,6.3,6.52,5.77
2011,"ALBANY MEDICAL CENTER",6604,458,6.94,7.09,6.62
2013,"ALBANY MED/SO CLINICAL CAMPUS",7,0,0,6.02,0
2012,"ALBANY MED/SO CLINICAL CAMPUS",7,0,0,4.57,0
2011,"ALBANY MED/SO CLINICAL CAMPUS",10,0,0,4.24,0
2013,"ALBANY MEMORIAL HOSPITAL",538,35,6.51,8.41,4.86
2012,"ALBANY MEMORIAL HOSPITAL",618,33,5.34,7.73,4.13
2011,"ALBANY MEMORIAL HOSPITAL",703,45,6.4,7.52,5.76
2013,"ALICE HYDE MEDICAL CENTER",727,31,4.26,4.82,5.56
2012,"ALICE HYDE MEDICAL CENTER",801,40,4.99,4.95,6.02
2011,"ALICE HYDE MEDICAL CENTER",772,56,7.25,6.03,8.14
2013,"ARNOT OGDEN MEDICAL CENTER",2503,109,4.35,4.98,5.5
2012,"ARNOT OGDEN MEDICAL CENTER",2273,108,4.75,5.02,5.66
2011,"ARNOT OGDEN MEDICAL CENTER",2146,92,4.29,5.37,5.4
2013,"AUBURN COMMUNITY HOSPITAL",1317,81,6.15,6.13,6.31
2012,"AUBURN COMMUNITY HOSPITAL",1373,61,4.44,5.56,4.77
2011,"AUBURN COMMUNITY HOSPITAL",1219,56,4.59,6.54,4.75
2013,"AURELIA OSBORN FOX MEM HOSP",634,21,3.31,5.2,4
2012,"AURELIA OSBORN FOX MEM HOSP",734,32,4.36,4.94,5.27
2011,"AURELIA OSBORN FOX MEM HOSP",774,40,5.17,5.84,5.99
2013,"BELLEVUE HOSPITAL CENTER",11891,1166,9.81,7.63,8.07
2012,"BELLEVUE HOSPITAL CENTER",11375,1230,10.81,7.91,8.17
2011,"BELLEVUE HOSPITAL CENTER",12800,1293,10.1,8.6,7.95
2013,"BENEDICTINE HOSPITAL",839,75,8.94,11.47,4.9
2012,"BENEDICTINE HOSPITAL",903,83,9.19,11.99,4.58
2011,"BENEDICTINE HOSPITAL",907,89,9.81,11.03,6.02
2013,"BERTRAND CHAFFEE HOSPITAL",120,3,2.5,6.39,2.46
2012,"BERTRAND CHAFFEE HOSPITAL",128,7,5.47,6.88,4.75
2011,"BERTRAND CHAFFEE HOSPITAL",108,4,3.7,5.97,4.2
2011,"BETH ISRAEL MED CTR KINGSHWY DIVISI",1927,57,2.96,4.94,4.06
2013,"BETH ISRAEL MEDICAL CENTER",19370,1517,7.83,7.41,6.64
2012,"BETH ISRAEL MEDICAL CENTER",18993,1412,7.43,7.08,6.27
2011,"BETH ISRAEL MEDICAL CENTER",143,7,4.9,10.75,3.08
2013,"BLYTHEDALE CHILDRENS HOSPITAL",353,72,20.4,5.42,23.62
2012,"BLYTHEDALE CHILDRENS HOSPITAL",108,34,31.48,5.81,32.39
2011,"BLYTHEDALE CHILDRENS HOSPITAL",37,6,16.22,8.88,12.36
2013,"BON SECOURS COMMUNITY HOSPITAL",784,72,9.18,10.56,5.46
2012,"BON SECOURS COMMUNITY HOSPITAL",967,100,10.34,10.24,6.03
2011,"BON SECOURS COMMUNITY HOSPITAL",931,97,10.42,9.34,7.55
2013,"BRONX LEB HSP CTR CNCRSE DIV",17730,1556,8.78,7.38,7.47
2012,"BRONX LEB HSP CTR CNCRSE DIV",17172,1434,8.35,7.31,6.83
2011,"BRONX LEB HSP CTR CNCRSE DIV",15601,1425,9.13,7.87,7.85
2013,"BROOKDALE HOSPITAL MEDICAL CTR",8557,531,6.21,6.4,6.09
2012,"BROOKDALE HOSPITAL MEDICAL CTR",8689,524,6.03,6.39,5.63
2011,"BROOKDALE HOSPITAL MEDICAL CTR",8368,506,6.05,6.67,6.13
2013,"BROOKHAVEN MEMORIAL HOSPITAL",3464,279,8.05,9.15,5.53
2012,"BROOKHAVEN MEMORIAL HOSPITAL",3495,282,8.07,8.62,5.59
2011,"BROOKHAVEN MEMORIAL HOSPITAL",3237,278,8.59,9,6.45
2013,"BROOKLYN HOSPITAL CENTER",8713,533,6.12,5.15,7.47
2012,"BROOKLYN HOSPITAL CENTER",8556,489,5.72,4.92,6.94
2011,"BROOKLYN HOSPITAL CENTER",7362,521,7.08,6.22,7.7
2013,"BROOKS MEMORIAL HOSPITAL",874,35,4,3.54,7.1
2012,"BROOKS MEMORIAL HOSPITAL",975,34,3.49,3.03,6.88
2011,"BROOKS MEMORIAL HOSPITAL",752,22,2.93,3.98,4.97
2013,"BUFFALO GENERAL HOSPITAL",4791,348,7.26,9.29,4.91
2012,"BUFFALO GENERAL HOSPITAL",4986,406,8.14,9.66,5.04
2011,"BUFFALO GENERAL HOSPITAL",4457,431,9.67,10.2,6.41
2013,"CALVARY HOSPITAL",79,14,17.72,7.41,15.03
2012,"CALVARY HOSPITAL",57,7,12.28,4.76,15.42
2011,"CALVARY HOSPITAL",52,4,7.69,6.23,8.35
2013,"CANTON POTSDAM HOSPITAL",1204,53,4.4,7.26,3.81
2012,"CANTON POTSDAM HOSPITAL",1145,57,4.98,7.61,3.91
2011,"CANTON POTSDAM HOSPITAL",1109,44,3.97,7.62,3.52
2013,"CARTHAGE AREA HOSPITAL    INC",353,8,2.27,2.08,6.83
2012,"CARTHAGE AREA HOSPITAL    INC",266,3,1.13,2.48,2.72
2011,"CARTHAGE AREA HOSPITAL    INC",295,5,1.69,2.86,4.01
2013,"CATSKILL REG MED CTR",1433,54,3.77,5.14,4.61
2012,"CATSKILL REG MED CTR",1630,56,3.44,5.5,3.73
2013,"CATSKILL REG MED CTR CALLICOON",221,27,12.22,11.94,6.43
2012,"CATSKILL REG MED CTR CALLICOON",170,21,12.35,11.25,6.56
2011,"CATSKILL REG MED CTR CALLICOON",235,33,14.04,12.2,7.79
2013,"CAYUGA MEDICAL CTR/ITHACA",1217,38,3.12,6.06,3.24
2012,"CAYUGA MEDICAL CTR/ITHACA",1142,47,4.12,5.87,4.19
2011,"CAYUGA MEDICAL CTR/ITHACA",1172,64,5.46,7.41,4.99
2013,"CHAMPLAIN VALLEY PHYSICIANS HOSPITAL",2399,104,4.34,6.37,4.28
2012,"CHAMPLAIN VALLEY PHYSICIANS HOSPITAL",2495,124,4.97,6.56,4.53
2011,"CHAMPLAIN VALLEY PHYSICIANS HOSPITAL",2369,141,5.95,7.49,5.37
2013,"CHENANGO MEMORIAL HOSP    INC",502,16,3.19,3.6,5.56
2012,"CHENANGO MEMORIAL HOSP    INC",509,10,1.96,3.99,2.94
2013,"CLAXTON-HEPBURN MED CTR",976,74,7.58,8.7,5.47
2012,"CLAXTON-HEPBURN MED CTR",878,53,6.04,9.49,3.8
2011,"CLAXTON-HEPBURN MED CTR",1004,66,6.57,9.15,4.86
2013,"CLIFTON FINE HOSPITAL",26,1,3.85,7.27,3.32
2012,"CLIFTON FINE HOSPITAL",21,0,0,6.92,0
2013,"CLIFTON SPRINGS HOSP & CLINIC",601,53,8.82,10.45,5.3
2012,"CLIFTON SPRINGS HOSP & CLINIC",636,57,8.96,9.92,5.4
2011,"CLIFTON SPRINGS HOSP & CLINIC",567,43,7.58,9.4,5.46
2013,"COBLESKILL REGIONAL HOSPITAL",56,4,7.14,7.51,5.98
2012,"COBLESKILL REGIONAL HOSPITAL",54,2,3.7,6.19,3.57
2011,"COBLESKILL REGIONAL HOSPITAL",275,11,4,5.53,4.9
2013,"COLER GOLDWATER SPEC HOSP",60,9,15,7.19,13.1
2012,"COLER GOLDWATER SPEC HOSP",81,4,4.94,7.62,3.87
2011,"COLER GOLDWATER SPEC HOSP",120,12,10,10.66,6.35
2013,"COLUMBIA MEMORIAL HOSPITAL",1779,83,4.67,5.79,5.06
2012,"COLUMBIA MEMORIAL HOSPITAL",1761,98,5.57,5.5,6.05
2011,"COLUMBIA MEMORIAL HOSPITAL",1533,65,4.24,6.53,4.4
2012,"COMMUNITY-GENRL HOSP SYRACUSE",6,1,16.67,2.05,48.65
2011,"COMMUNITY-GENRL HOSP SYRACUSE",584,37,6.34,7.03,6.1
2013,"COMMUNITY MEMORIAL HOSPITAL",231,11,4.76,5.67,5.28
2012,"COMMUNITY MEMORIAL HOSPITAL",225,9,4,5.4,4.42
2011,"COMMUNITY MEMORIAL HOSPITAL",225,11,4.89,5.43,6.09
2013,"CONEY ISLAND HOSPITAL",5614,345,6.15,6.49,5.95
2012,"CONEY ISLAND HOSPITAL",7663,446,5.82,5.97,5.83
2011,"CONEY ISLAND HOSPITAL",8465,567,6.7,6.65,6.82
2013,"CORNING HOSP",734,29,3.95,4.88,5.09
2012,"CORNING HOSP",722,34,4.71,5.69,4.95
2011,"CORNING HOSP",670,26,3.88,5.93,4.43
2013,"CORTLAND REG MED CTR",1283,69,5.38,5.27,6.41
2012,"CORTLAND REG MED CTR",1466,57,3.89,5.04,4.61
2011,"CORTLAND REG MED CTR",1295,68,5.25,5.81,6.12
2013,"CROUSE HOSPITAL",5497,216,3.93,4.78,5.17
2012,"CROUSE HOSPITAL",5887,224,3.81,4.66,4.88
2011,"CROUSE HOSPITAL",4891,216,4.42,5.77,5.18
2013,"CUBA MEMORIAL HOSPITAL",28,3,10.71,3.26,20.62
2012,"CUBA MEMORIAL HOSPITAL",38,1,2.63,3.57,4.41
2011,"CUBA MEMORIAL HOSPITAL",33,0,0,3.55,0
2013,"DELAWARE VALLEY HOSPITAL  INC",115,7,6.09,8.32,4.59
2012,"DELAWARE VALLEY HOSPITAL  INC",138,3,2.17,7.22,1.8
2011,"DELAWARE VALLEY HOSPITAL  INC",164,9,5.49,8.8,4.22
2013,"EASTERN LONG ISLAND HOSPITAL",544,53,9.74,12.03,5.09
2012,"EASTERN LONG ISLAND HOSPITAL",525,65,12.38,12.61,5.86
2011,"EASTERN LONG ISLAND HOSPITAL",515,54,10.49,12.72,5.58
2013,"EASTERN NIAGARA HOSPITAL",1765,93,5.27,5.72,5.79
2012,"EASTERN NIAGARA HOSPITAL",1576,61,3.87,5.58,4.15
2011,"EASTERN NIAGARA HOSPITAL",1310,67,5.11,5.92,5.85
2011,"EDWARD J NOBLE HOSP",300,13,4.33,4.48,6.55
2012,"EDWARD J NOBLE HOSP/GOUVERNEUR",255,8,3.14,4.3,4.35
2013,"ELIZABETHTOWN COMMUNITY HSP",45,1,2.22,4.55,3.07
2012,"ELIZABETHTOWN COMMUNITY HSP",35,1,2.86,4.67,3.66
2011,"ELIZABETHTOWN COMMUNITY HSP",50,1,2,5.65,2.4
2013,"ELLENVILLE REG HSP",551,77,13.97,4.47,19.65
2012,"ELLENVILLE REG HSP",602,87,14.45,4.72,18.3
2011,"ELLENVILLE REG HSP",107,9,8.41,6.15,9.25
2013,"ELLIS HOSPITAL",4830,297,6.15,6.49,5.96
2012,"ELLIS HOSPITAL",4761,270,5.67,6.33,5.35
2011,"ELLIS HOSPITAL",4021,307,7.63,7.78,6.64
2013,"ELMHURST HOSPITAL",15047,810,5.38,5.01,6.76
2012,"ELMHURST HOSPITAL",15595,754,4.83,4.71,6.13
2011,"ELMHURST HOSPITAL",13737,785,5.71,5.6,6.9
2013,"ERIE COUNTY MEDICAL CENTER",5159,385,7.46,10.69,4.38
2012,"ERIE COUNTY MEDICAL CENTER",4882,381,7.8,10.85,4.3
2011,"ERIE COUNTY MEDICAL CENTER",4810,366,7.61,10.52,4.89
2013,"FAXTON-ST LUKES HEALTHCARE",4578,198,4.33,5.17,5.26
2012,"FAXTON-ST LUKES HEALTHCARE",4593,189,4.12,5.12,4.8
2011,"FAXTON-ST LUKES HEALTHCARE",3665,191,5.21,6.28,5.62
2013,"F F THOMPSON HOSPITAL",999,53,5.31,4.65,7.17
2012,"F F THOMPSON HOSPITAL",820,40,4.88,4.29,6.8
2011,"F F THOMPSON HOSPITAL",670,42,6.27,5.12,8.29
2013,"FLUSHING HOSPITAL MEDICAL CENTER",9362,472,5.04,4.33,7.31
2012,"FLUSHING HOSPITAL MEDICAL CENTER",9138,430,4.71,4.2,6.69
2011,"FLUSHING HOSPITAL MEDICAL CENTER",7811,465,5.95,5.31,7.58
2013,"FRANKLIN  HOSPITAL",1767,138,7.81,7.51,6.53
2012,"FRANKLIN  HOSPITAL",1788,129,7.21,6.84,6.3
2011,"FRANKLIN  HOSPITAL",1930,132,6.84,7.08,6.53
2013,"GENEVA GENERAL HOSPITAL",805,36,4.47,5.99,4.69
2012,"GENEVA GENERAL HOSPITAL",1127,42,3.73,4.66,4.78
2011,"GENEVA GENERAL HOSPITAL",907,34,3.75,5.49,4.62
2013,"GLEN COVE HOSPITAL",689,50,7.26,8.31,5.49
2012,"GLEN COVE HOSPITAL",703,47,6.69,7.9,5.06
2011,"GLEN COVE HOSPITAL",736,38,5.16,7.55,4.63
2013,"GLENS FALLS HOSPITAL",2812,124,4.41,6.96,3.98
2012,"GLENS FALLS HOSPITAL",2752,119,4.32,7.11,3.63
2011,"GLENS FALLS HOSPITAL",447,55,12.3,13.8,6.03
2013,"GOOD SAMARITAN HOSP MED CTR",4950,207,4.18,4.93,5.33
2012,"GOOD SAMARITAN HOSP MED CTR",5025,215,4.28,4.81,5.31
2011,"GOOD SAMARITAN HOSP MED CTR",4797,249,5.19,5.44,6.45
2013,"GOOD SAMARITAN HSP SUFFERN",5409,127,2.35,3.14,4.7
2012,"GOOD SAMARITAN HSP SUFFERN",5054,143,2.83,3.07,5.5
2011,"GOOD SAMARITAN HSP SUFFERN",3595,145,4.03,4.51,6.05
2013,"GOUVERNEUR HOSPITAL",86,5,5.81,5.73,6.37
2013,"HARLEM HOSPITAL",7592,683,9,7.88,7.17
2012,"HARLEM HOSPITAL",6966,614,8.81,7.5,7.02
2011,"HARLEM HOSPITAL",6417,570,8.88,7.69,7.82
2013,"HELEN HAYES HOSPITAL",31,2,6.45,8.26,4.91
2012,"HELEN HAYES HOSPITAL",27,2,7.41,9.59,4.62
2011,"HELEN HAYES HOSPITAL",22,1,4.55,6.59,4.67
2013,"HIGHLAND HOSP OF ROCHESTER",4122,152,3.69,4.61,5.03
2012,"HIGHLAND HOSP OF ROCHESTER",4067,157,3.86,4.43,5.21
2011,"HIGHLAND HOSP OF ROCHESTER",3373,128,3.79,5.53,4.64
2013,"HOSPITAL FOR SPECIAL SURGERY",410,7,1.71,3.17,3.38
2012,"HOSPITAL FOR SPECIAL SURGERY",404,3,0.74,3.29,1.35
2011,"HOSPITAL FOR SPECIAL SURGERY",396,13,3.28,4.05,5.49
2013,"HUDSON VALLEY HOSP CTR",1185,36,3.04,4.53,4.21
2012,"HUDSON VALLEY HOSP CTR",1190,39,3.28,4.94,3.96
2011,"HUDSON VALLEY HOSP CTR",1046,39,3.73,5.21,4.84
2013,"HUNTINGTON HOSPITAL",2354,83,3.53,4.79,4.62
2012,"HUNTINGTON HOSPITAL",2319,82,3.54,4.94,4.27
2011,"HUNTINGTON HOSPITAL",2089,95,4.55,6,5.13
2013,"INTERFAITH MEDICAL CENTER",4821,678,14.06,11.65,7.58
2012,"INTERFAITH MEDICAL CENTER",5139,713,13.87,11.81,7.02
2011,"INTERFAITH MEDICAL CENTER",5398,692,12.82,11.05,7.85
2013,"IRA DAVENPORT MEM HSP IN",96,9,9.38,7.51,7.84
2012,"IRA DAVENPORT MEM HSP IN",108,4,3.7,8.49,2.61
2011,"IRA DAVENPORT MEM HSP IN",163,8,4.91,7.68,4.33
2013,"JACOBI MEDICAL CENTER",12407,670,5.4,5.95,5.71
2012,"JACOBI MEDICAL CENTER",11437,691,6.04,6,6.01
2011,"JACOBI MEDICAL CENTER",10675,773,7.24,6.63,7.39
2013,"JAMAICA HOSPITAL MED CTR",11828,661,5.59,5.22,6.72
2012,"JAMAICA HOSPITAL MED CTR",11300,598,5.29,4.84,6.53
2011,"JAMAICA HOSPITAL MED CTR",9891,581,5.87,5.51,7.22
2013,"JOHN T MATHER MEM HOSP",1312,96,7.32,9.44,4.87
2012,"JOHN T MATHER MEM HOSP",1280,119,9.3,9.27,5.99
2011,"JOHN T MATHER MEM HOSP",1341,122,9.1,9.38,6.56
2013,"JONES MEMORIAL HOSPITAL",437,18,4.12,4.63,5.59
2012,"JONES MEMORIAL HOSPITAL",456,13,2.85,4.34,3.93
2011,"JONES MEMORIAL HOSPITAL",472,22,4.66,4.52,6.98
2013,"KENMORE MERCY HOSPITAL",855,46,5.38,8.57,3.94
2012,"KENMORE MERCY HOSPITAL",834,49,5.88,7.42,4.73
2011,"KENMORE MERCY HOSPITAL",693,45,6.49,7.53,5.83
2013,"KINGSBROOK JEWISH MED CENTER",3217,288,8.95,7.44,7.56
2012,"KINGSBROOK JEWISH MED CENTER",3603,290,8.05,7.3,6.59
2011,"KINGSBROOK JEWISH MED CENTER",3638,307,8.44,7.48,7.63
2013,"KINGS COUNTY HOSPITAL CENTER",14820,1024,6.91,6.45,6.73
2012,"KINGS COUNTY HOSPITAL CENTER",15004,1071,7.14,6.66,6.4
2011,"KINGS COUNTY HOSPITAL CENTER",13344,1047,7.85,7.48,7.09
2013,"KINGSTON HOSPITAL",1903,110,5.78,5.92,6.13
2012,"KINGSTON HOSPITAL",1928,104,5.39,5.63,5.72
2011,"KINGSTON HOSPITAL",1963,109,5.55,6.42,5.85
2013,"LAKESIDE MEMORIAL HOSPITAL",61,6,9.84,7.46,8.28
2012,"LAKESIDE MEMORIAL HOSPITAL",309,17,5.5,5,6.57
2011,"LAKESIDE MEMORIAL HOSPITAL",363,17,4.68,4.91,6.46
2012,"LAWRENCE HOSPITAL",1564,65,4.16,4.53,5.48
2011,"LAWRENCE HOSPITAL",1271,66,5.19,5.32,6.61
2013,"LAWRENCE HOSPITAL-NYP",1882,58,3.08,4.34,4.46
2013,"LENOX HILL HOSPITAL",4442,318,7.16,5.8,7.76
2012,"LENOX HILL HOSPITAL",3964,275,6.94,5.84,7.1
2011,"LENOX HILL HOSPITAL",3995,321,8.04,6.39,8.51
2013,"LEWIS COUNTY GENERAL HOSPITAL",435,10,2.3,3.5,4.13
2012,"LEWIS COUNTY GENERAL HOSPITAL",386,15,3.89,4.31,5.39
2011,"LEWIS COUNTY GENERAL HOSPITAL",372,16,4.3,4.85,6
2013,"LINCOLN MEDICAL/MENTAL HLTH",15441,1041,6.74,5.45,7.77
2012,"LINCOLN MEDICAL/MENTAL HLTH",14773,861,5.83,5.46,6.38
2011,"LINCOLN MEDICAL/MENTAL HLTH",13862,853,6.15,5.81,7.17
2013,"LITTLE FALLS HOSPITAL",160,10,6.25,5.75,6.83
2012,"LITTLE FALLS HOSPITAL",168,10,5.95,5.12,6.94
2011,"LITTLE FALLS HOSPITAL",196,15,7.65,5.3,9.77
2012,"LONG BEACH MEDICAL CENTER",766,84,10.97,10.75,6.1
2011,"LONG BEACH MEDICAL CENTER",1034,89,8.61,10.13,5.75
2013,"LONG ISLAND COLLEGE HSP",13,0,0,9.76,0
2012,"LONG ISLAND COLLEGE HSP",2,1,50,5.41,55.26
2011,"LONG ISLAND COLLEGE HSP",2100,163,7.76,7.08,7.42
2013,"LONG ISLAND JEWISH MED CTR",13355,878,6.57,6.27,6.58
2012,"LONG ISLAND JEWISH MED CTR",12402,796,6.42,6.09,6.29
2011,"LONG ISLAND JEWISH MED CTR",10598,771,7.28,6.97,7.06
2013,"LUTHERAN MEDICAL CENTER",12247,473,3.86,4.51,5.38
2012,"LUTHERAN MEDICAL CENTER",13013,576,4.43,4.42,5.98
2011,"LUTHERAN MEDICAL CENTER",4007,205,5.12,4.4,7.86
2013,"MAIMONIDES MEDICAL CENTER",24309,917,3.77,3.63,6.52
2012,"MAIMONIDES MEDICAL CENTER",23410,683,2.92,3.35,5.2
2011,"MAIMONIDES MEDICAL CENTER",18038,687,3.81,4.54,5.67
2013,"MARGARETVILLE  HOSP",43,1,2.33,5.61,2.6
2012,"MARGARETVILLE  HOSP",35,2,5.71,4.57,7.46
2011,"MARGARETVILLE  HOSP",50,0,0,5.85,0
2013,"MARY IMOGENE BASSETT HOSPITAL",2224,109,4.9,6.13,5.02
2012,"MARY IMOGENE BASSETT HOSPITAL",2031,86,4.23,5.92,4.27
2011,"MARY IMOGENE BASSETT HOSPITAL",1714,86,5.02,7.11,4.78
2013,"MASSENA MEMORIAL HOSPITAL",643,28,4.35,5.2,5.26
2012,"MASSENA MEMORIAL HOSPITAL",583,25,4.29,5.95,4.3
2011,"MASSENA MEMORIAL HOSPITAL",686,45,6.56,6.2,7.16
2013,"MEDINA MEMORIAL HOSPITAL",427,23,5.39,9.69,3.49
2012,"MEDINA MEMORIAL HOSPITAL",426,38,8.92,9.67,5.51
2011,"MEDINA MEMORIAL HOSPITAL",538,39,7.25,8.67,5.66
2013,"MEMORIAL HSP CANCER ALLIED",410,30,7.32,6.6,6.97
2012,"MEMORIAL HSP CANCER ALLIED",379,14,3.69,5.9,3.74
2011,"MEMORIAL HSP CANCER ALLIED",571,32,5.6,6.39,5.94
2013,"MERCY HOSPITAL OF BUFFALO",3434,136,3.96,5.44,4.57
2012,"MERCY HOSPITAL OF BUFFALO",3378,135,4,5.24,4.55
2011,"MERCY HOSPITAL OF BUFFALO",2563,125,4.88,6.33,5.21
2013,"MERCY MEDICAL CENTER",2524,121,4.79,5.36,5.62
2012,"MERCY MEDICAL CENTER",2235,136,6.09,5.86,6.21
2011,"MERCY MEDICAL CENTER",2253,115,5.1,6.1,5.67
2013,"METROPOLITAN HOSPITAL",8668,839,9.68,7.3,8.33
2012,"METROPOLITAN HOSPITAL",8603,697,8.1,6.79,7.13
2011,"METROPOLITAN HOSPITAL",7659,785,10.25,8.05,8.62
2013,"MILLARD FILLMORE HOSPITALS",1621,64,3.95,4.7,5.28
2012,"MILLARD FILLMORE HOSPITALS",1864,49,2.63,4.8,3.27
2011,"MILLARD FILLMORE HOSPITALS",2562,123,4.8,6.44,5.05
2013,"MONROE COMMUNITY HOSPITAL",12,0,0,5.32,0
2012,"MONROE COMMUNITY HOSPITAL",9,0,0,2.36,0
2011,"MONROE COMMUNITY HOSPITAL",2,1,50,5.54,61.05
2013,"MONTEFIORE MEDICAL CENTER",39947,2749,6.88,6.07,7.13
2012,"MONTEFIORE MEDICAL CENTER",35025,2331,6.66,6.06,6.56
2011,"MONTEFIORE MEDICAL CENTER",34418,2665,7.74,6.71,7.81
2013,"MOSES LUDINGTON HOSPITAL",34,3,8.82,10.32,5.37
2012,"MOSES LUDINGTON HOSPITAL",30,1,3.33,8.42,2.36
2011,"MOSES LUDINGTON HOSPITAL",39,3,7.69,5.86,8.89
2013,"MOUNT SINAI HOSPITAL",19568,1295,6.62,6.4,6.5
2012,"MOUNT SINAI HOSPITAL",18744,1207,6.44,6.06,6.34
2011,"MOUNT SINAI HOSPITAL",17038,1207,7.08,6.84,7.01
2013,"MOUNT ST MARY HSP HLTH CTR",967,50,5.17,6,5.41
2012,"MOUNT ST MARY HSP HLTH CTR",894,50,5.59,6.68,5
2011,"MOUNT ST MARY HSP HLTH CTR",871,59,6.77,7.33,6.25
2013,"MOUNT VERNON HOSPITAL",1067,82,7.69,7.94,6.08
2012,"MOUNT VERNON HOSPITAL",1029,88,8.55,8.28,6.17
2011,"MOUNT VERNON HOSPITAL",981,101,10.3,8.49,8.21
2013,"NASSAU UNIVERSITY MEDICAL CTR",8700,558,6.41,6.5,6.2
2012,"NASSAU UNIVERSITY MEDICAL CTR",8230,535,6.5,6.56,5.92
2011,"NASSAU UNIVERSITY MEDICAL CTR",8310,664,7.99,7.55,7.16
2013,"NATHAN LITTAUER HOSPITAL",1066,29,2.72,4.05,4.22
2012,"NATHAN LITTAUER HOSPITAL",1012,33,3.26,3.86,5.04
2011,"NATHAN LITTAUER HOSPITAL",1052,42,3.99,4.85,5.57
2013,"NEWARK-WAYNE COM HSP      INC",1408,59,4.19,5.39,4.88
2012,"NEWARK-WAYNE COM HSP      INC",1088,43,3.95,5.99,3.94
2011,"NEWARK-WAYNE COM HSP      INC",1111,58,5.22,6.6,5.35
2013,"NEW YORK HOSP MED CTR QUEENS",12817,481,3.75,3.97,5.94
2012,"NEW YORK HOSP MED CTR QUEENS",13246,444,3.35,3.65,5.49
2011,"NEW YORK HOSP MED CTR QUEENS",11439,499,4.36,4.4,6.7
2013,"NEW YORK METHODIST HOSP",13517,687,5.08,4.81,6.63
2012,"NEW YORK METHODIST HOSP",13115,555,4.23,4.31,5.87
2011,"NEW YORK METHODIST HOSP",10871,540,4.97,5.15,6.53
2013,"NEW YORK PRESBYTERIAN",35276,1833,5.2,5.66,5.77
2012,"NEW YORK PRESBYTERIAN",35392,1726,4.88,5.29,5.5
2011,"NEW YORK PRESBYTERIAN",31761,1897,5.97,6.42,6.3
2013,"NIAGARA FALLS MEM MED CTR",2221,143,6.44,8.01,5.05
2012,"NIAGARA FALLS MEM MED CTR",2351,201,8.55,8.16,6.26
2011,"NIAGARA FALLS MEM MED CTR",1966,192,9.77,10.2,6.48
2013,"NICHOLAS H NOYES MEM HOSP",496,12,2.42,4.03,3.78
2012,"NICHOLAS H NOYES MEM HOSP",526,15,2.85,4.16,4.09
2011,"NICHOLAS H NOYES MEM HOSP",527,20,3.8,4.82,5.33
2013,"NORTH CENTRAL BRONX HOSPITAL",4330,284,6.56,6.38,6.46
2012,"NORTH CENTRAL BRONX HOSPITAL",5624,302,5.37,5.02,6.4
2011,"NORTH CENTRAL BRONX HOSPITAL",4728,329,6.96,6.12,7.69
2013,"NORTHERN DUTCHESS HOSPITAL",682,20,2.93,3.12,5.91
2012,"NORTHERN DUTCHESS HOSPITAL",572,3,0.52,2.88,1.09
2011,"NORTHERN DUTCHESS HOSPITAL",429,8,1.86,3.97,3.18
2013,"NORTHERN WESTCHESTER HOSPITAL",1042,42,4.03,4.29,5.91
2012,"NORTHERN WESTCHESTER HOSPITAL",1005,26,2.59,3.45,4.48
2013,"NORTH SHORE UN HSP FOREST HIL",6261,239,3.82,3.73,6.43
2012,"NORTH SHORE UN HSP FOREST HIL",6376,234,3.67,3.61,6.08
2011,"NORTH SHORE UN HSP FOREST HIL",5395,237,4.39,4.33,6.87
2013,"NORTH SHORE UNIV AT PLAINVIEW",1463,46,3.14,4.84,4.08
2012,"NORTH SHORE UNIV AT PLAINVIEW",1297,30,2.31,4.52,3.06
2011,"NORTH SHORE UNIV AT PLAINVIEW",1382,48,3.47,5.42,4.34
2013,"NORTH SHORE UNIVERSITY HOSPITAL",7058,416,5.89,5.7,6.49
2012,"NORTH SHORE UNIVERSITY HOSPITAL",6300,343,5.44,5.45,5.97
2011,"NORTH SHORE UNIVERSITY HOSPITAL",322,39,12.11,10.78,7.6
2013,"NYACK HSP",4311,151,3.5,4.28,5.15
2012,"NYACK HSP",4441,155,3.49,4.29,4.86
2011,"NYACK HSP",3612,171,4.73,5.25,6.11
2013,"NY COMMUNITY HOSP OF BROOKLYN",3150,148,4.7,6.09,4.85
2012,"NY COMMUNITY HOSP OF BROOKLYN",3039,141,4.64,5.57,4.97
2011,"NY COMMUNITY HOSP OF BROOKLYN",2785,120,4.31,5.66,5.15
2013,"N Y EYE AND EAR INFIRMARY",163,5,3.07,3.72,5.18
2012,"N Y EYE AND EAR INFIRMARY",221,7,3.17,2.62,7.23
2011,"N Y EYE AND EAR INFIRMARY",320,14,4.38,3.3,8.98
2013,"NYU HOSPITAL FOR JOINT DISEASES",434,13,3,3.45,5.45
2012,"NYU HOSPITAL FOR JOINT DISEASES",389,11,2.83,3.6,4.69
2011,"NYU HOSPITAL FOR JOINT DISEASES",424,16,3.77,4.45,5.74
2013,"NYU HOSPITALS CENTER",3351,164,4.89,5.81,5.29
2012,"NYU HOSPITALS CENTER",3029,187,6.17,6.29,5.86
2011,"NYU HOSPITALS CENTER",3699,245,6.62,7,6.4
2013,"O'CONNOR HOSPITAL",21,0,0,6.5,0
2012,"O'CONNOR HOSPITAL",31,1,3.23,4.94,3.9
2011,"O'CONNOR HOSPITAL",41,2,4.88,3.1,10.65
2013,"OLEAN GENERAL HOSP MAIN",1573,62,3.94,6.15,4.03
2012,"OLEAN GENERAL HOSP MAIN",1519,57,3.75,5.16,4.34
2011,"OLEAN GENERAL HOSP MAIN",1484,75,5.05,6.7,5.1
2013,"ONEIDA HEALTH CARE CENTER",767,14,1.83,3.49,3.29
2012,"ONEIDA HEALTH CARE CENTER",790,27,3.42,3.53,5.78
2011,"ONEIDA HEALTH CARE CENTER",649,22,3.39,4.41,5.2
2013,"ORANGE REGIONAL MEDICAL CENTER",4195,161,3.84,5.61,4.3
2012,"ORANGE REGIONAL MEDICAL CENTER",3697,135,3.65,5.67,3.85
2011,"ORANGE REGIONAL MEDICAL CENTER",3740,218,5.83,6.77,5.83
2013,"OSWEGO HOSPITAL",1946,138,7.09,6.57,6.78
2012,"OSWEGO HOSPITAL",2050,108,5.27,5.9,5.33
2011,"OSWEGO HOSPITAL",1717,135,7.86,7.36,7.23
2013,"OUR LADY OF LOURDES MEM",2167,87,4.01,5.23,4.82
2012,"OUR LADY OF LOURDES MEM",2181,86,3.94,4.94,4.77
2011,"OUR LADY OF LOURDES MEM",1855,87,4.69,5.61,5.66
2013,"PECONIC BAY MED CTR",1257,51,4.06,5.27,4.84
2012,"PECONIC BAY MED CTR",1333,50,3.75,4.93,4.54
2011,"PECONIC BAY MED CTR",1119,44,3.93,5.4,4.92
2012,"PENINSULA HOSPITAL CENTER",271,29,10.7,7.07,9.04
2011,"PENINSULA HOSPITAL CENTER",1925,118,6.13,6.97,5.95
2013,"PHELPS MEMORIAL HOSPITAL ASSOCIATION",2117,98,4.63,5.04,5.77
2012,"PHELPS MEMORIAL HOSPITAL ASSOCIATION",2134,89,4.17,4.93,5.05
2011,"PHELPS MEMORIAL HOSPITAL ASSOCIATION",1807,99,5.48,5.97,6.21
2013,"PUTNAM HOSPITAL CENTER",703,64,9.1,8.4,6.81
2012,"PUTNAM HOSPITAL CENTER",718,34,4.74,7.57,3.74
2011,"PUTNAM HOSPITAL CENTER",731,41,5.61,9.46,4.01
2013,"QUEENS HOSPITAL",7884,543,6.89,5.86,7.38
2012,"QUEENS HOSPITAL",7850,474,6.04,5.68,6.35
2011,"QUEENS HOSPITAL",7293,504,6.91,6.73,6.95
2013,"RICHMOND UNIVERSITY MEDICAL CENTER",5861,398,6.79,6.76,6.31
2012,"RICHMOND UNIVERSITY MEDICAL CENTER",6673,500,7.49,7.32,6.12
2011,"RICHMOND UNIVERSITY MEDICAL CENTER",6500,602,9.26,8.6,7.29
2013,"RIVER HOSPITAL",14,2,14.29,4.74,18.92
2012,"RIVER HOSPITAL",17,0,0,4.27,0
2011,"RIVER HOSPITAL",22,0,0,4.63,0
2013,"ROCHESTER GENERAL HOSPITAL",6836,388,5.68,6.77,5.27
2012,"ROCHESTER GENERAL HOSPITAL",6667,399,5.98,6.49,5.51
2011,"ROCHESTER GENERAL HOSPITAL",6069,428,7.05,7.15,6.67
2013,"ROME MEMORIAL HOSP INC",1255,44,3.51,4.98,4.43
2012,"ROME MEMORIAL HOSP INC",1348,57,4.23,4.97,5.09
2011,"ROME MEMORIAL HOSP INC",1070,55,5.14,5.35,6.5
2013,"ROSWELL PARK CANCER INST",224,15,6.7,7.61,5.53
2012,"ROSWELL PARK CANCER INST",255,20,7.84,5.99,7.82
2011,"ROSWELL PARK CANCER INST",313,22,7.03,5.4,8.81
2013,"SAMARITAN HOSPITAL TROY",1625,130,8,9.76,5.15
2012,"SAMARITAN HOSPITAL TROY",1649,137,8.31,9.9,5.01
2011,"SAMARITAN HOSPITAL TROY",1935,164,8.48,9.52,6.03
2013,"SAMARITAN MEDICAL CENTER",2170,118,5.44,5.92,5.77
2012,"SAMARITAN MEDICAL CENTER",1818,97,5.34,6.86,4.65
2011,"SAMARITAN MEDICAL CENTER",1786,89,4.98,6.42,5.25
2013,"SARATOGA HOSPITAL",1584,96,6.06,6.92,5.5
2012,"SARATOGA HOSPITAL",1444,83,5.75,6.93,4.96
2011,"SARATOGA HOSPITAL",1380,94,6.81,7.81,5.9
2013,"SCHUYLER HOSPITAL",164,7,4.27,5.91,4.54
2012,"SCHUYLER HOSPITAL",165,5,3.03,5.78,3.13
2011,"SCHUYLER HOSPITAL",265,6,2.26,4.87,3.15
2013,"SETON HEALTH SYSTEM",1006,70,6.96,9.99,4.38
2012,"SETON HEALTH SYSTEM",1083,92,8.49,9.36,5.42
2011,"SETON HEALTH SYSTEM",1039,54,5.2,7.59,4.63
2012,"SHEEHAN MEMORIAL HOSPITAL",150,12,8,12.74,3.75
2011,"SHEEHAN MEMORIAL HOSPITAL",662,61,9.21,13.9,4.49
2013,"SISTERS OF CHARITY HOSP",4059,119,2.93,3.55,5.19
2012,"SISTERS OF CHARITY HOSP",3928,123,3.13,3.42,5.47
2011,"SISTERS OF CHARITY HOSP",2619,98,3.74,4.15,6.11
2013,"SISTERS OF CHARITY HOSP ST JOSEPH",500,31,6.2,8.4,4.64
2012,"SISTERS OF CHARITY HOSP ST JOSEPH",608,37,6.09,7.44,4.89
2011,"SISTERS OF CHARITY HOSP ST JOSEPH",559,35,6.26,7.66,5.53
2013,"SOLDIERS AND SAILORS MEM HOSP",181,14,7.73,10.22,4.76
2012,"SOLDIERS AND SAILORS MEM HOSP",172,9,5.23,9.44,3.31
2011,"SOLDIERS AND SAILORS MEM HOSP",104,9,8.65,13.62,4.3
2013,"SOUND SHORE MC WESTCHESTER",2701,78,2.89,3.75,4.84
2012,"SOUND SHORE MC WESTCHESTER",2848,141,4.95,4.78,6.19
2011,"SOUND SHORE MC WESTCHESTER",2636,166,6.3,5.96,7.15
2013,"SOUTHAMPTON HOSPITAL",1004,33,3.29,3.44,6.01
2012,"SOUTHAMPTON HOSPITAL",990,23,2.32,3.18,4.37
2011,"SOUTHAMPTON HOSPITAL",756,21,2.78,3.85,4.88
2013,"SOUTH NASSAU COMMUNITIES HSP",3790,200,5.28,5.88,5.64
2012,"SOUTH NASSAU COMMUNITIES HSP",3219,155,4.82,5.75,5
2011,"SOUTH NASSAU COMMUNITIES HSP",3030,177,5.84,6.5,6.08
2013,"SOUTHSIDE HOSPITAL",5875,218,3.71,4.68,4.99
2012,"SOUTHSIDE HOSPITAL",5376,214,3.98,4.4,5.41
2011,"SOUTHSIDE HOSPITAL",4407,236,5.36,5.55,6.53
2013,"ST ANTHONY COMMUNITY HOSPITAL",267,6,2.25,4.27,3.31
2012,"ST ANTHONY COMMUNITY HOSPITAL",226,9,3.98,4.37,5.44
2011,"ST ANTHONY COMMUNITY HOSPITAL",226,4,1.77,4.61,2.6
2013,"STATEN ISLAND UNIV HOSP",11472,778,6.78,6.44,6.61
2012,"STATEN ISLAND UNIV HOSP",10935,671,6.14,6.22,5.9
2011,"STATEN ISLAND UNIV HOSP",9740,741,7.61,6.96,7.4
2013,"STATEWIDE",733308,44541,6.07,NA,NA
2012,"STATEWIDE",724962,43307,5.97,NA,NA
2011,"STATEWIDE",619114,41897,6.77,NA,NA
2013,"ST BARNABAS HOSPITAL",10667,961,9.01,7.75,7.3
2012,"ST BARNABAS HOSPITAL",10921,1132,10.37,8.24,7.52
2011,"ST BARNABAS HOSPITAL",10576,1121,10.6,8.69,8.25
2013,"ST CATHERINE OF SIENA MED CTR",1831,120,6.55,7.01,5.87
2012,"ST CATHERINE OF SIENA MED CTR",1932,132,6.83,7.24,5.64
2011,"ST CATHERINE OF SIENA MED CTR",1877,109,5.81,7.74,5.07
2013,"ST CHARLES HOSPITAL",1123,51,4.54,7.12,4.01
2012,"ST CHARLES HOSPITAL",1222,51,4.17,6.13,4.07
2011,"ST CHARLES HOSPITAL",1040,64,6.15,6.67,6.24
2013,"ST ELIZABETH MED CTR",2493,181,7.26,8.75,5.21
2012,"ST ELIZABETH MED CTR",2676,210,7.85,8.8,5.33
2011,"ST ELIZABETH MED CTR",2270,177,7.8,8.31,6.35
2013,"ST FRANCIS HOSPITAL-DUTCHESS",1648,160,9.71,10.79,5.65
2012,"ST FRANCIS HOSPITAL-DUTCHESS",1802,210,11.65,10.73,6.49
2011,"ST FRANCIS HOSPITAL-DUTCHESS",1877,196,10.44,10.62,6.65
2013,"ST FRANCIS HSP-NASSAU",849,57,6.71,7.34,5.75
2012,"ST FRANCIS HSP-NASSAU",816,41,5.02,6.78,4.43
2011,"ST FRANCIS HSP-NASSAU",817,53,6.49,7.78,5.64
2013,"ST JAMES MERCY HOSPITAL",1049,64,6.1,7.24,5.29
2012,"ST JAMES MERCY HOSPITAL",1197,83,6.93,7.9,5.25
2011,"ST JAMES MERCY HOSPITAL",1171,80,6.83,8.32,5.56
2013,"ST JOHNS EPISCOPAL HOSPITAL",5326,365,6.85,6.64,6.49
2012,"ST JOHNS EPISCOPAL HOSPITAL",5280,377,7.14,7.46,5.72
2011,"ST JOHNS EPISCOPAL HOSPITAL",172,9,5.23,9.76,3.63
2013,"ST JOHNS RIVERSIDE HOSPITAL",6927,678,9.79,9.64,6.38
2012,"ST JOHNS RIVERSIDE HOSPITAL",6065,665,10.96,10.31,6.35
2011,"ST JOHNS RIVERSIDE HOSPITAL",6304,729,11.56,10.79,7.25
2013,"ST JOSEPH HOSPITAL HEALTH SYRACUSE",5113,329,6.43,6.3,6.42
2012,"ST JOSEPH HOSPITAL HEALTH SYRACUSE",4952,302,6.1,6.36,5.73
2011,"ST JOSEPH HOSPITAL HEALTH SYRACUSE",4145,288,6.95,7.34,6.41
2013,"ST JOSEPH HOSPITAL-NASSAU",612,41,6.7,7.04,5.98
2012,"ST JOSEPH HOSPITAL-NASSAU",576,28,4.86,6.45,4.51
2011,"ST JOSEPH HOSPITAL-NASSAU",606,37,6.11,7.17,5.77
2013,"ST JOSEPHS HOSPITAL ELMIRA",1071,69,6.44,10.14,3.99
2012,"ST JOSEPHS HOSPITAL ELMIRA",1243,83,6.68,10.53,3.79
2011,"ST JOSEPHS HOSPITAL ELMIRA",1289,86,6.67,10.49,4.3
2013,"ST JOSEPHS HOSP-WESTCHESTER",3742,384,10.26,9.79,6.58
2012,"ST JOSEPHS HOSP-WESTCHESTER",3509,347,9.89,9.34,6.32
2011,"ST JOSEPHS HOSP-WESTCHESTER",3760,392,10.43,9.35,7.54
2013,"ST LUKES CORNWALL",2642,108,4.09,5.05,5.08
2012,"ST LUKES CORNWALL",2531,108,4.27,5.22,4.88
2011,"ST LUKES CORNWALL",2610,121,4.64,5.53,5.68
2013,"ST LUKES ROOSEVELT HOSPITAL-NYC",13752,1066,7.75,7.29,6.68
2012,"ST LUKES ROOSEVELT HOSPITAL-NYC",13979,1136,8.13,7.45,6.52
2011,"ST LUKES ROOSEVELT HOSPITAL-NYC",14229,1175,8.26,7.71,7.24
2013,"ST MARYS HOSP AMSTERDAM",1525,71,4.66,7.13,4.1
2012,"ST MARYS HOSP AMSTERDAM",1447,76,5.25,7.33,4.28
2011,"ST MARYS HOSP AMSTERDAM",1474,78,5.29,7.68,4.66
2013,"ST PETERS HOSPITAL ALBANY",4478,251,5.61,6.68,5.27
2012,"ST PETERS HOSPITAL ALBANY",4137,237,5.73,6.86,4.99
2011,"ST PETERS HOSPITAL ALBANY",3463,199,5.75,7.84,4.96
2013,"STRONG MEMORIAL HOSPITAL",9867,684,6.93,7.33,5.94
2012,"STRONG MEMORIAL HOSPITAL",9670,712,7.36,7.18,6.13
2011,"STRONG MEMORIAL HOSPITAL",961,74,7.7,11.81,4.41
2013,"ST VINCENTS HSP MED CTR NY",21,4,19.05,9.69,12.35
2012,"ST VINCENTS HSP MED CTR NY",6,1,16.67,8.19,12.16
2011,"ST VINCENTS HSP MED CTR NY",6,2,33.33,9.72,23.2
2013,"SUMMIT PARK HOSPITAL ROCKLAND",269,45,16.73,12.3,8.54
2012,"SUMMIT PARK HOSPITAL ROCKLAND",231,35,15.15,12.29,7.37
2011,"SUMMIT PARK HOSPITAL ROCKLAND",298,48,16.11,12.57,8.67
2013,"SUNY AT STONY BROOK",7823,377,4.82,5.14,5.89
2012,"SUNY AT STONY BROOK",7181,347,4.83,4.87,5.93
2011,"SUNY AT STONY BROOK",6247,342,5.47,5.89,6.29
2013,"THE BURDETT CARE CENTER",1077,13,1.21,0.84,9.01
2012,"THE BURDETT CARE CENTER",1019,9,0.88,0.85,6.19
2013,"TLC HEALTH NETWORK",531,58,10.92,9.93,6.91
2012,"TLC HEALTH NETWORK",474,47,9.92,10.36,5.72
2011,"TLC HEALTH NETWORK",276,31,11.23,12,6.33
2013,"UNITED HEALTH SERVICES",4296,215,5,6.4,4.91
2012,"UNITED HEALTH SERVICES",4063,180,4.43,6.55,4.04
2011,"UNITED HEALTH SERVICES",3783,215,5.68,7.41,5.19
2013,"UNITED MEMORIAL MEDICAL CTR",1058,39,3.69,4.86,4.76
2012,"UNITED MEMORIAL MEDICAL CTR",1060,42,3.96,4.77,4.96
2011,"UNITED MEMORIAL MEDICAL CTR",897,43,4.79,6.54,4.96
2013,"UNITY HOSPITAL ROCHESTER",4006,168,4.19,6.53,4.04
2012,"UNITY HOSPITAL ROCHESTER",3815,181,4.74,6.4,4.43
2011,"UNITY HOSPITAL ROCHESTER",3309,148,4.47,7.79,3.89
2013,"UNIVERSITY HOSPITAL OF BROOKLYN",9798,653,6.66,5.42,7.73
2012,"UNIVERSITY HOSPITAL OF BROOKLYN",12534,788,6.29,5.58,6.73
2013,"UNIVERSITY HOSPITAL @ SYRACUSE",7046,499,7.08,7.36,6.05
2012,"UNIVERSITY HOSPITAL @ SYRACUSE",6624,503,7.59,7.46,6.08
2011,"UNIVERSITY HOSPITAL @ SYRACUSE",5379,394,7.32,8.08,6.13
2011,"UNIVERSITY HOSP OF BROOKLYN",7613,564,7.41,6,8.36
2013,"VASSAR BROTHERS MED CTR",3575,122,3.41,4.33,4.95
2012,"VASSAR BROTHERS MED CTR",3546,132,3.72,4.26,5.22
2011,"VASSAR BROTHERS MED CTR",3091,162,5.24,5.17,6.86
2013,"WESTCHESTER MED CTR",6467,421,6.51,6.47,6.32
2012,"WESTCHESTER MED CTR",5496,429,7.81,6.68,6.98
2011,"WESTCHESTER MED CTR",5840,427,7.31,6.8,7.28
2013,"WESTCHESTER SQUARE HOSPITAL",194,13,6.7,6.01,7.01
2012,"WESTCHESTER SQUARE HOSPITAL",1536,90,5.86,5.95,5.89
2011,"WESTCHESTER SQUARE HOSPITAL",1788,126,7.05,6.04,7.89
2013,"WESTFIELD MEMORIAL HOSPITAL",17,0,0,5.75,0
2012,"WESTFIELD MEMORIAL HOSPITAL",6,0,0,7.5,0
2011,"WESTFIELD MEMORIAL HOSPITAL",17,0,0,4.69,0
2013,"WHITE PLAINS HOSPITAL CENTER",2122,96,4.52,5.28,5.39
2012,"WHITE PLAINS HOSPITAL CENTER",2066,102,4.94,5.24,5.63
2011,"WHITE PLAINS HOSPITAL CENTER",1944,109,5.61,5.59,6.79
2013,"WINIFRED MASTERSON BURKE HOSPITAL",1,0,0,4.49,0
2011,"WINIFRED MASTERSON BURKE HOSPITAL",1,0,0,6.67,0
2013,"WINTHROP-UNIVERSITY HOSPITAL",5620,279,4.96,4.46,6.99
2012,"WINTHROP-UNIVERSITY HOSPITAL",4612,236,5.12,4.56,6.7
2011,"WINTHROP-UNIVERSITY HOSPITAL",4253,224,5.27,5.06,7.05
2013,"WOMANS CHRISTIAN ASSOCIATION",2383,109,4.57,6.49,4.43
2012,"WOMANS CHRISTIAN ASSOCIATION",2488,140,5.63,6.69,5.02
2011,"WOMANS CHRISTIAN ASSOCIATION",2200,149,6.77,7.26,6.31
2013,"WOMEN AND CHILDRENS HOSPITAL BUFFALO",6405,175,2.73,3.14,5.47
2012,"WOMEN AND CHILDRENS HOSPITAL BUFFALO",6652,156,2.35,2.85,4.92
2011,"WOMEN AND CHILDRENS HOSPITAL BUFFALO",5294,164,3.1,3.57,5.88
2013,"WOODHULL MED & MNTL HLTH CTR",9527,680,7.14,6.53,6.87
2012,"WOODHULL MED & MNTL HLTH CTR",9605,702,7.31,6.16,7.09
2011,"WOODHULL MED & MNTL HLTH CTR",8826,729,8.26,7.36,7.59
2013,"WYCKOFF HEIGHTS MEDICAL CTR",8111,469,5.78,5.13,7.09
2012,"WYCKOFF HEIGHTS MEDICAL CTR",9884,488,4.94,4.55,6.48
2011,"WYCKOFF HEIGHTS MEDICAL CTR",8670,442,5.1,4.85,7.12
2013,"WYOMING COMMUNITY HOSP     CO",584,36,6.16,7.63,5.08
2012,"WYOMING COMMUNITY HOSP     CO",554,28,5.05,8.05,3.75
2011,"WYOMING COMMUNITY HOSP     CO",572,25,4.37,7.84,3.77
